{
  "project_info": {
    "project_number": "965412539682",
    "project_id": "trackable-fleet-management",
    "storage_bucket": "trackable-fleet-management.appspot.com"
  },
  "client": [
    {
      "client_info": {
        "mobilesdk_app_id": "1:965412539682:android:319fcb5327c78e5d1aa97b",
        "android_client_info": {
          "package_name": "com.trackablefleet.app"
        }
      },
      "oauth_client": [],
      "api_key": [
        {
          "current_key": "AIzaSyCFiKSBmd-dtxJl84P6XP7O5kDuHoFLSHE"
        }
      ],
      "services": {
        "appinvite_service": {
          "other_platform_oauth_client": []
        }
      }
    }
  ],
  "configuration_version": "1"
}