{
  "project_info": {
    "project_number": "108807344504",
    "project_id": "trackwelt",
    "storage_bucket": "trackwelt.appspot.com"
  },
  "client": [
    {
      "client_info": {
        "mobilesdk_app_id": "1:108807344504:android:861ffd95dc0722d355388d",
        "android_client_info": {
          "package_name": "com.trackwelt.app"
        }
      },
      "oauth_client": [
        {
          "client_id": "108807344504-646u0jcfgm73uqc9s7t9mq9e2gu94eqs.apps.googleusercontent.com",
          "client_type": 1,
          "android_info": {
            "package_name": "com.trackwelt.app",
            "certificate_hash": "49b1a9812091f6e6d4d2ae1e555094e6c72c13ca"
          }
        },
        {
          "client_id": "108807344504-0bnf4m4m6e5tf5hb42ir06edio3gvsah.apps.googleusercontent.com",
          "client_type": 3
        }
      ],
      "api_key": [
        {
          "current_key": "AIzaSyAupnZPmpkxNWWPLDMcYIPZKHHlb1ru4MI"
        }
      ],
      "services": {
        "appinvite_service": {
          "other_platform_oauth_client": [
            {
              "client_id": "108807344504-0bnf4m4m6e5tf5hb42ir06edio3gvsah.apps.googleusercontent.com",
              "client_type": 3
            }
          ]
        }
      }
    }
  ],
  "configuration_version": "1"
}